\relax 
\catcode `:\active 
\catcode `;\active 
\catcode `!\active 
\catcode `?\active 
\select@language{french}
\@writefile{toc}{\select@language{french}}
\@writefile{lof}{\select@language{french}}
\@writefile{lot}{\select@language{french}}
\@writefile{toc}{\contentsline {section}{\numberline {1}Introduction}{2}}
\@writefile{toc}{\contentsline {section}{\numberline {2}Cahier des charges}{3}}
\@writefile{toc}{\contentsline {subsection}{\numberline {2.1}Fonctionnalit\IeC {\'e}s}{3}}
\@writefile{toc}{\contentsline {subsection}{\numberline {2.2}Performances}{3}}
\@writefile{toc}{\contentsline {subsection}{\numberline {2.3}Contraintes}{3}}
\@writefile{toc}{\contentsline {section}{\numberline {3}Test effectu\IeC {\'e}}{4}}
\@writefile{toc}{\contentsline {section}{\numberline {4}Solution et challenge }{5}}
\@writefile{toc}{\contentsline {section}{\numberline {5} Introduction au Raspberry Pi du point de vu mat\IeC {\'e}riel}{6}}
\@writefile{toc}{\contentsline {section}{\numberline {6}Manuel d\IeC {\textquoteright }utilisation du bot et de ses commandes}{7}}
\@writefile{toc}{\contentsline {section}{\numberline {7}Conclusion}{8}}
\@writefile{toc}{\contentsline {section}{\numberline {8}Planning}{9}}
\@writefile{toc}{\contentsline {subsection}{\numberline {8.1}Description des t\IeC {\^a}ches}{9}}
\@writefile{toc}{\contentsline {subsection}{\numberline {8.2}Ordonnancement des t\IeC {\^a}ches}{10}}
\@writefile{toc}{\contentsline {subsection}{\numberline {8.3}Diagramme de Gantt}{11}}
\citation{*}
